{
	"code": 100,
	"message": "操作成功",
	"data": {
		"data": [
			{
				"accountNo": "17763278286",
				"accountId": "481",
				"businessType": 2,
				"cityNo": "04",
				"carrierNo": "DX",
				"deliveryId": 15812,
				"deliveryStatus": 90,
				"downChannelNo": "DC1340",
				"downProductNo": "DP1300",
				"manualStatus": 10,
				"orderNo": "D21060312462783537276",
				"provinceNo": "37",
				"pageId": 1482,
				"productType": 3,
				"payPrice": null,
				"resultMsg": "你本月已经下过一单了",
				"serverIp": "172.1.2.43",
				"termNo": "TM1481",
				"upChannelNo": "UC1120",
				"upProductNo": "UP1340",
				"upPrice": null,
				"upOrderNo": null,
				"createTime": "2021-06-03T04:46:27.000+00:00",
				"finishTime": "2021-06-03T04:46:27.000+00:00",
				"upRemark": null,
				"principal": 6,
				"advertiserUid": 1164,
				"themeId": 1441,
				"activateStatus": 1
			},
			{
				"accountNo": "15259368168",
				"accountId": "621",
				"businessType": 2,
				"cityNo": "09",
				"carrierNo": "YD",
				"deliveryId": 15811,
				"deliveryStatus": 0,
				"downChannelNo": "DC1340",
				"downProductNo": "DP1300",
				"manualStatus": 10,
				"orderNo": "D21060312410746754187",
				"provinceNo": "35",
				"pageId": 1880,
				"productType": 3,
				"payPrice": null,
				"resultMsg": "成功",
				"serverIp": "172.1.2.43",
				"termNo": "TM1481",
				"upChannelNo": "UC1120",
				"upProductNo": "UP1340",
				"upPrice": null,
				"upOrderNo": null,
				"createTime": "2021-06-03T04:41:07.000+00:00",
				"finishTime": "2021-06-03T04:41:10.000+00:00",
				"upRemark": null,
				"principal": 11,
				"advertiserUid": 1423,
				"themeId": 1700,
				"activateStatus": 1
			},
			{
				"accountNo": "17718133909",
				"accountId": "481",
				"businessType": 2,
				"cityNo": "01",
				"carrierNo": "DX",
				"deliveryId": 15810,
				"deliveryStatus": 90,
				"downChannelNo": "DC1340",
				"downProductNo": "DP1300",
				"manualStatus": 10,
				"orderNo": "D21060312383497232723",
				"provinceNo": "34",
				"pageId": 1482,
				"productType": 3,
				"payPrice": null,
				"resultMsg": "你本月已经下过一单了",
				"serverIp": "172.1.2.43",
				"termNo": "TM1481",
				"upChannelNo": "UC1120",
				"upProductNo": "UP1340",
				"upPrice": null,
				"upOrderNo": null,
				"createTime": "2021-06-03T04:38:34.000+00:00",
				"finishTime": "2021-06-03T04:38:34.000+00:00",
				"upRemark": null,
				"principal": 6,
				"advertiserUid": 1164,
				"themeId": 1441,
				"activateStatus": 1
			},
			{
				"accountNo": "13576157985",
				"accountId": "541",
				"businessType": 3,
				"cityNo": "09",
				"carrierNo": "YD",
				"deliveryId": 15809,
				"deliveryStatus": 0,
				"downChannelNo": "DC1340",
				"downProductNo": "DP1280",
				"manualStatus": 10,
				"orderNo": "D21060312292288750810",
				"provinceNo": "36",
				"pageId": 1580,
				"productType": 4,
				"payPrice": null,
				"resultMsg": "办理成功",
				"serverIp": "172.1.2.50",
				"termNo": "TM1482",
				"upChannelNo": "UC1120",
				"upProductNo": "UP1323",
				"upPrice": null,
				"upOrderNo": null,
				"createTime": "2021-06-03T04:30:21.000+00:00",
				"finishTime": "2021-06-03T04:30:26.000+00:00",
				"upRemark": "sync",
				"principal": 1,
				"advertiserUid": 1289,
				"themeId": 1460,
				"activateStatus": null
			},
			{
				"accountNo": "15928742193",
				"accountId": "501",
				"businessType": 3,
				"cityNo": "01",
				"carrierNo": "YD",
				"deliveryId": 15808,
				"deliveryStatus": 90,
				"downChannelNo": "DC1340",
				"downProductNo": "DP1280",
				"manualStatus": 10,
				"orderNo": "D21060312273257495287",
				"provinceNo": "51",
				"pageId": 1503,
				"productType": 4,
				"payPrice": null,
				"resultMsg": "您好，您已订购过此业务，无需重复操作！详情可查看产品订购规则或咨询10086",
				"serverIp": "172.1.2.43",
				"termNo": "TM1482",
				"upChannelNo": "UC1120",
				"upProductNo": "UP1323",
				"upPrice": null,
				"upOrderNo": null,
				"createTime": "2021-06-03T04:27:56.000+00:00",
				"finishTime": "2021-06-03T04:27:58.000+00:00",
				"upRemark": null,
				"principal": 8,
				"advertiserUid": 804,
				"themeId": 1460,
				"activateStatus": null
			},
			{
				"accountNo": "15902055478",
				"accountId": "481",
				"businessType": 2,
				"cityNo": "01",
				"carrierNo": "YD",
				"deliveryId": 15807,
				"deliveryStatus": 0,
				"downChannelNo": "DC1340",
				"downProductNo": "DP1300",
				"manualStatus": 10,
				"orderNo": "D21060312222525860374",
				"provinceNo": "44",
				"pageId": 1482,
				"productType": 3,
				"payPrice": null,
				"resultMsg": "成功",
				"serverIp": "172.1.2.50",
				"termNo": "TM1481",
				"upChannelNo": "UC1120",
				"upProductNo": "UP1340",
				"upPrice": null,
				"upOrderNo": null,
				"createTime": "2021-06-03T04:22:25.000+00:00",
				"finishTime": "2021-06-03T04:22:31.000+00:00",
				"upRemark": null,
				"principal": 6,
				"advertiserUid": 1164,
				"themeId": 1441,
				"activateStatus": 1
			},
			{
				"accountNo": "15260630636",
				"accountId": "501",
				"businessType": 3,
				"cityNo": "06",
				"carrierNo": "YD",
				"deliveryId": 15806,
				"deliveryStatus": 0,
				"downChannelNo": "DC1340",
				"downProductNo": "DP1280",
				"manualStatus": 10,
				"orderNo": "D21060312194756627312",
				"provinceNo": "35",
				"pageId": 1503,
				"productType": 4,
				"payPrice": null,
				"resultMsg": "办理成功",
				"serverIp": "172.1.2.50",
				"termNo": "TM1482",
				"upChannelNo": "UC1120",
				"upProductNo": "UP1323",
				"upPrice": null,
				"upOrderNo": null,
				"createTime": "2021-06-03T04:20:00.000+00:00",
				"finishTime": "2021-06-03T04:20:06.000+00:00",
				"upRemark": "sync",
				"principal": 8,
				"advertiserUid": 804,
				"themeId": 1460,
				"activateStatus": null
			},
			{
				"accountNo": "13603148652",
				"accountId": "541",
				"businessType": 3,
				"cityNo": "08",
				"carrierNo": "YD",
				"deliveryId": 15805,
				"deliveryStatus": 90,
				"downChannelNo": "DC1340",
				"downProductNo": "DP1280",
				"manualStatus": 10,
				"orderNo": "D21060312182593834180",
				"provinceNo": "13",
				"pageId": 1580,
				"productType": 4,
				"payPrice": null,
				"resultMsg": "对不起，您的套餐无法订购该业务，详情请咨询10086。",
				"serverIp": "172.1.2.50",
				"termNo": "TM1482",
				"upChannelNo": "UC1120",
				"upProductNo": "UP1323",
				"upPrice": null,
				"upOrderNo": null,
				"createTime": "2021-06-03T04:19:11.000+00:00",
				"finishTime": "2021-06-03T04:19:13.000+00:00",
				"upRemark": null,
				"principal": 1,
				"advertiserUid": 1289,
				"themeId": 1460,
				"activateStatus": null
			},
			{
				"accountNo": "13860801262",
				"accountId": "501",
				"businessType": 3,
				"cityNo": "06",
				"carrierNo": "YD",
				"deliveryId": 15804,
				"deliveryStatus": 90,
				"downChannelNo": "DC1340",
				"downProductNo": "DP1280",
				"manualStatus": 10,
				"orderNo": "D21060312180169313454",
				"provinceNo": "35",
				"pageId": 1503,
				"productType": 4,
				"payPrice": null,
				"resultMsg": "您好，您已订购过此业务，无需重复操作！详情可查看产品订购规则或咨询10086",
				"serverIp": "172.1.2.43",
				"termNo": "TM1482",
				"upChannelNo": "UC1120",
				"upProductNo": "UP1323",
				"upPrice": null,
				"upOrderNo": null,
				"createTime": "2021-06-03T04:18:16.000+00:00",
				"finishTime": "2021-06-03T04:18:17.000+00:00",
				"upRemark": null,
				"principal": 8,
				"advertiserUid": 804,
				"themeId": 1460,
				"activateStatus": null
			},
			{
				"accountNo": "15673837287",
				"accountId": "481",
				"businessType": 2,
				"cityNo": "13",
				"carrierNo": "LT",
				"deliveryId": 15803,
				"deliveryStatus": 0,
				"downChannelNo": "DC1340",
				"downProductNo": "DP1300",
				"manualStatus": 10,
				"orderNo": "D21060312162596335136",
				"provinceNo": "43",
				"pageId": 1590,
				"productType": 3,
				"payPrice": null,
				"resultMsg": "成功",
				"serverIp": "172.1.2.43",
				"termNo": "TM1481",
				"upChannelNo": "UC1120",
				"upProductNo": "UP1340",
				"upPrice": null,
				"upOrderNo": null,
				"createTime": "2021-06-03T04:16:25.000+00:00",
				"finishTime": "2021-06-03T04:16:28.000+00:00",
				"upRemark": null,
				"principal": 5,
				"advertiserUid": 833,
				"themeId": 1440,
				"activateStatus": 1
			}
		],
		"total": 180,
		"pageNum": 4,
		"pageSize": 10,
		"totalPages": 18
	}
}